start;1494261832
read;1;1494261833
read;0;1494261850
read;1494261851
connected;1494261950;components
done;1494261966
Application 14367994 resources: utime ~276s, stime ~4s, Rss ~1947072, inblocks ~108088, outblocks ~88577
